<?xml version="1.0" encoding="utf-8"?>
<!-- Generator: Adobe Illustrator 15.0.2, SVG Export Plug-In . SVG Version: 6.00 Build 0)  -->
<!DOCTYPE svg PUBLIC "-//W3C//DTD SVG 1.1//EN" "http://www.w3.org/Graphics/SVG/1.1/DTD/svg11.dtd">
<svg version="1.1" xmlns="http://www.w3.org/2000/svg" xmlns:xlink="http://www.w3.org/1999/xlink" x="0px" y="0px" width="120px"
	 height="120px" viewBox="0 0 120 120" enable-background="new 0 0 120 120" xml:space="preserve">
<g id="Capa_2" display="none">
	<path display="inline" fill="#C53167" d="M67.133,75.314c0-2.904-2.347-5.248-5.25-5.248c-2.893,0-5.25,2.344-5.25,5.248
		c0,2.893,2.344,5.25,5.25,5.25C64.786,80.564,67.133,78.207,67.133,75.314z"/>
	<path display="inline" fill="#C53167" d="M66.742,102.865c0-2.904-2.356-5.25-5.248-5.25c-2.894,0-5.252,2.346-5.252,5.25
		s2.358,5.25,5.252,5.25C64.386,108.115,66.742,105.758,66.742,102.865z"/>
	<path display="inline" fill="#C53167" d="M66.742,89.086c0-2.906-2.356-5.252-5.248-5.252c-2.894,0-5.252,2.359-5.252,5.252
		c0,2.904,2.358,5.248,5.252,5.248C64.386,94.334,66.742,91.99,66.742,89.086z"/>
	<g display="inline">
		<path fill="#C53167" d="M50.846,75.314c0-2.904-2.358-5.25-5.25-5.25c-2.906,0-5.25,2.346-5.25,5.25c0,2.895,2.357,5.25,5.25,5.25
			C48.487,80.564,50.846,78.209,50.846,75.314z"/>
		<circle fill="#C53167" cx="45.195" cy="89.084" r="5.25"/>
	</g>
	<g display="inline">
		<path fill="#C53167" d="M83.23,75.314c0-2.906-2.345-5.25-5.25-5.25c-2.904,0-5.25,2.344-5.25,5.25
			c0,2.895,2.346,5.252,5.25,5.252C80.886,80.566,83.23,78.209,83.23,75.314z"/>
		<circle fill="#C53167" cx="77.98" cy="89.084" r="5.25"/>
	</g>
	<path display="inline" fill="#C53167" d="M88.029,24.564c-1.479,0-2.949,0.11-4.399,0.351c-6.29-8.2-15.96-13.03-26.409-13.03
		c-15.801,0-29.171,10.93-32.511,26.01C13.7,38.715,5,47.436,5,58.096c0,11.311,9.59,20.42,21.391,20.42l0,0h4.139v-8.109
		l-4.149,0.01c-7.22,0-13.101-5.49-13.101-12.23c0-6.629,5.891-12.029,13.121-12.029c0.479,0,0.949,0.02,1.42,0.07
		c0,0,2.39,0.14,3.51-0.891c0.87-0.811,1.02-2.8,1.02-2.8c1.351-12.74,12.03-22.351,24.871-22.351c8,0,15.329,3.55,20.029,9.9
		c0.1,0.141,0.2,0.29,0.311,0.43c0.209,0.301,0.42,0.601,0.619,0.91c0.12,0.18,0.24,0.36,0.36,0.541c1.021,1.6,3,2.299,4.81,1.689
		c1.65-0.561,3.271-0.76,4.75-0.811c10.271,0.03,18.621,8.41,18.621,18.69c0,7.819-2.921,13.14-8.921,16.251
		c-1.75,0.91-3.53,1.488-5.079,1.859v8.42c2.42-0.42,5.489-1.221,8.569-2.76c6.26-3.141,13.71-9.811,13.71-23.771
		C115,36.665,102.9,24.564,88.029,24.564z"/>
</g>
<g id="weather-hail">
	<g>
		<g>
			<circle cx="45.205" cy="92.011" r="5.25"/>
			<path d="M46.815,80.771c0,0.88-0.72,1.6-1.6,1.6l0,0c-0.89,0-1.6-0.72-1.6-1.6V70.48c0-0.88,0.71-1.6,1.6-1.6l0,0
				c0.89,0,1.6,0.72,1.6,1.6V80.771z"/>
		</g>
		<g>
			<path d="M66.848,104.681c0-2.905-2.346-5.25-5.251-5.25c-2.905,0-5.249,2.345-5.249,5.25s2.344,5.25,5.249,5.25
				C64.502,109.931,66.848,107.573,66.848,104.681z"/>
			<path d="M63.207,93.721c0,0.891-0.72,1.61-1.601,1.61l0,0c-0.889,0-1.599-0.72-1.599-1.61V70.48c0-0.88,0.72-1.6,1.599-1.6l0,0
				c0.891,0,1.601,0.72,1.601,1.6V93.721z"/>
		</g>
		<g>
			<path d="M83.24,91.94c0-2.906-2.357-5.251-5.25-5.251s-5.25,2.345-5.25,5.251s2.345,5.251,5.25,5.251
				C80.896,97.179,83.24,94.834,83.24,91.94z"/>
			<path d="M79.601,80.771c0,0.88-0.72,1.6-1.61,1.6l0,0c-0.89,0-1.6-0.72-1.6-1.6V70.48c0-0.88,0.72-1.6,1.6-1.6l0,0
				c0.891,0,1.61,0.72,1.61,1.6V80.771z"/>
		</g>
		<path d="M88.039,22.75c-1.479,0-2.949,0.11-4.399,0.35c-6.29-8.2-15.96-13.03-26.41-13.03c-15.8,0-29.17,10.93-32.5,26.01
			c-11.02,0.82-19.72,9.54-19.72,20.2c0,11.32,9.59,20.43,21.38,20.43l0,0h4.14V68.6l-4.15,0.01c-7.22-0.01-13.1-5.489-13.1-12.24
			c0-6.63,5.89-12.03,13.12-12.03c0.47,0,0.95,0.02,1.42,0.07c0,0,2.39,0.15,3.5-0.89c0.87-0.8,1.02-2.8,1.02-2.8
			c1.34-12.74,12.04-22.35,24.87-22.35c8,0,15.329,3.56,20.03,9.9c0.1,0.14,0.209,0.28,0.299,0.43c0.221,0.3,0.421,0.6,0.631,0.91
			c0.119,0.18,0.24,0.36,0.35,0.54c1.02,1.6,3.01,2.3,4.811,1.69c1.65-0.56,3.27-0.76,4.75-0.81c10.27,0.03,18.619,8.4,18.619,18.69
			c0,7.82-2.92,13.14-8.92,16.25c-1.75,0.91-3.529,1.49-5.08,1.869v8.421c2.42-0.421,5.49-1.22,8.57-2.761
			c6.26-3.14,13.721-9.81,13.721-23.77C115.01,34.85,102.91,22.75,88.039,22.75z"/>
	</g>
</g>
</svg>
