<?xml version="1.0" encoding="UTF-8"?>
<svg width="960px" height="960px" viewBox="0 0 960 960" version="1.1" xmlns="http://www.w3.org/2000/svg" xmlns:xlink="http://www.w3.org/1999/xlink">
    <title>battery-horizontal</title>
    <g id="battery-horizontal" stroke="none" stroke-width="1" fill="none" fill-rule="evenodd">
        <g id="Combined-Shape-2" transform="translate(480.000000, 480.500000) rotate(-270.000000) translate(-480.000000, -480.500000) translate(279.000000, 21.000000)" fill="#000000" fill-rule="nonzero">
            <path d="M278,0 C304.509668,0 326,21.490332 326,48 L326,80 L338,80 C372.992762,80 401.426255,108.083566 401.991426,142.941643 L402,144 L402,855 C402,890.346224 373.346224,919 338,919 L64,919 C28.653776,919 0,890.346224 0,855 L0,144 C0,108.653776 28.653776,80 64,80 L76,80 L76,48 C76,21.7554287 97.0626744,0.430308574 123.206232,0 Z M64,120 C50.745166,120 40,130.745166 40,144 L40,855 C40,868.254834 50.745166,879 64,879 L338,879 C351.254834,879 362,868.254834 362,855 L362,144 C362,130.745166 351.254834,120 338,120 Z M316,250.5 C325.388841,250.5 333,258.111159 333,267.5 L333,829.5 C333,838.888841 325.388841,846.5 316,846.5 L86,846.5 C76.6111593,846.5 69,838.888841 69,829.5 L69,267.5 C69,258.111159 76.6111593,250.5 86,250.5 L316,250.5 Z M278,40 L124,40 C119.581722,40 116,43.581722 116,48 L116,80 L286,80 L286,48 C286,43.6650857 282.552162,40.1354571 278.249179,40.0038068 L278,40 Z" id="Combined-Shape"></path>
        </g>
    </g>
</svg>