<?xml version="1.0" encoding="UTF-8"?>
<svg width="960px" height="960px" viewBox="0 0 960 960" version="1.1" xmlns="http://www.w3.org/2000/svg" xmlns:xlink="http://www.w3.org/1999/xlink">
    <title>lowbattery-alarm</title>
    <g id="lowbattery-alarm" stroke="none" stroke-width="1" fill="none" fill-rule="evenodd">
        <path d="M557,21 C583.509668,21 605,42.490332 605,69 L605,101 L617,101 C651.992762,101 680.426255,129.083566 680.991426,163.941643 L681,165 L681,876 C681,911.346224 652.346224,940 617,940 L343,940 C307.653776,940 279,911.346224 279,876 L278.999097,707 L318.999097,707 L319,876 C319,889.254834 329.745166,900 343,900 L617,900 C630.254834,900 641,889.254834 641,876 L641,165 C641,151.745166 630.254834,141 617,141 L343,141 C329.745166,141 319,151.745166 319,165 L318.999097,314.861 L286.238917,252.468904 C284.045491,248.304055 281.623409,244.392051 279.000441,240.732876 L279,165 C279,129.653776 307.653776,101 343,101 L355,101 L355,69 C355,42.7554287 376.062674,21.4303086 402.206232,21 L557,21 Z M595,730.5 C604.388841,730.5 612,738.111159 612,747.5 L612,850.5 C612,859.888841 604.388841,867.5 595,867.5 L365,867.5 C355.611159,867.5 348,859.888841 348,850.5 L348,747.5 C348,738.111159 355.611159,730.5 365,730.5 L595,730.5 Z M278.999401,432.276 L318.999401,508.456 L318.999401,617.001 L278.999401,617.001 L278.999401,432.276 Z M557,61 L403,61 C398.581722,61 395,64.581722 395,69 L395,101 L565,101 L565,69 C565,64.6650857 561.552162,61.1354571 557.249179,61.0038068 L557,61 Z" id="Combined-Shape" fill="#000000" fill-rule="nonzero"></path>
        <path d="M397.772849,593.946464 L233.116741,280.362172 C219.520557,254.545943 182.52629,254.545943 168.930106,280.362172 L4.19495003,593.946464 C-8.4526627,618.025822 9.01685239,647 36.2882673,647 L201.023423,647 L365.679531,647 C392.950946,647 410.499509,618.104771 397.772849,593.946464 Z M183.15867,390.495628 C183.15867,380.311244 191.379618,372.100578 201.576756,372.100578 C211.773894,372.100578 219.994842,380.311244 219.994842,390.495628 L219.994842,496.207956 C219.994842,506.39234 211.773894,514.603007 201.576756,514.603007 C191.379618,514.603007 183.15867,506.39234 183.15867,496.207956 L183.15867,390.495628 Z M201.023423,593.393823 C186.320573,593.393823 174.463436,581.472567 174.463436,566.867055 C174.463436,552.182594 186.399621,540.340287 201.023423,540.340287 C215.726273,540.340287 227.58341,552.261543 227.58341,566.867055 C227.58341,581.472567 215.647225,593.393823 201.023423,593.393823 Z" id="Shape" fill="#000000" fill-rule="nonzero"></path>
    </g>
</svg>